{
    "hidden": [],
    "header": {
        "contents": [],
        "key": "custom_header",
        "cssClass": null,
        "role": 0,
        "permission": 0,
        "tooltip": null,
        "visibilityFormula": null,
        "flow": null,
        "align": null,
        "type": "panel"
    },
    "body": {
        "contents": [
            {
                "key": "label_key_edited",
                "cssClass": "",
                "role": "0",
                "permission": "0",
                "tooltip": "Label tooltip edited",
                "visibilityFormula": "",
                "label": null,
                "defaultValue": null,
                "size": "full-size",
                "icon": "",
                "value": "Label text edited",
                "prefix": "",
                "suffix": "",
                "rollMessage": "",
                "altRollMessage": "",
                "style": "label",
                "type": "label"
            }
        ],
        "key": "custom_body",
        "cssClass": null,
        "role": 0,
        "permission": 0,
        "tooltip": null,
        "visibilityFormula": null,
        "flow": null,
        "align": null,
        "type": "panel"
    },
    "display": {
        "width": "600",
        "height": "600",
        "fix_size": false,
        "pp_width": "64",
        "pp_height": "64"
    },
    "attributeBar": {},
    "activeEffects": {},
    "activeConditionalModifierGroups": []
}
