{
  "name": "Orc",
  "type": "equippableItem",
  "img": "icons/svg/item-bag.svg",
  "system": {
    "hidden": [],
    "header": {
      "contents": [],
      "key": "custom_header",
      "cssClass": null,
      "role": 0,
      "permission": 0,
      "tooltip": null,
      "visibilityFormula": null,
      "flow": null,
      "align": null,
      "type": "panel"
    },
    "body": {
      "contents": [
        {
          "key": "",
          "cssClass": "",
          "role": 0,
          "permission": 0,
          "tooltip": null,
          "visibilityFormula": null,
          "contents": [
            {
              "key": "",
              "cssClass": "",
              "role": 0,
              "permission": 0,
              "tooltip": null,
              "visibilityFormula": null,
              "label": null,
              "defaultValue": null,
              "size": "full-size",
              "icon": "",
              "value": "Attributes",
              "prefix": "",
              "suffix": "",
              "rollMessage": "",
              "altRollMessage": "",
              "style": "title",
              "type": "label"
            },
            {
              "key": "",
              "cssClass": "",
              "role": 0,
              "permission": 0,
              "tooltip": null,
              "visibilityFormula": null,
              "contents": [
                [
                  {
                    "key": "",
                    "cssClass": "",
                    "role": 0,
                    "permission": 0,
                    "tooltip": null,
                    "visibilityFormula": null,
                    "label": null,
                    "defaultValue": null,
                    "size": "full-size",
                    "icon": "",
                    "value": "Attribute",
                    "prefix": "",
                    "suffix": "",
                    "rollMessage": "",
                    "altRollMessage": "",
                    "style": "bold",
                    "type": "label"
                  },
                  {
                    "key": "",
                    "cssClass": "",
                    "role": 0,
                    "permission": 0,
                    "tooltip": null,
                    "visibilityFormula": null,
                    "label": null,
                    "defaultValue": null,
                    "size": "full-size",
                    "icon": "",
                    "value": "MIN",
                    "prefix": "",
                    "suffix": "",
                    "rollMessage": "",
                    "altRollMessage": "",
                    "style": "bold",
                    "type": "label"
                  },
                  {
                    "key": "",
                    "cssClass": "",
                    "role": 0,
                    "permission": 0,
                    "tooltip": null,
                    "visibilityFormula": null,
                    "label": null,
                    "defaultValue": null,
                    "size": "full-size",
                    "icon": "",
                    "value": "MAX",
                    "prefix": "",
                    "suffix": "",
                    "rollMessage": "",
                    "altRollMessage": "",
                    "style": "bold",
                    "type": "label"
                  }
                ],
                [
                  {
                    "key": "",
                    "cssClass": "",
                    "role": 0,
                    "permission": 0,
                    "tooltip": null,
                    "visibilityFormula": null,
                    "label": null,
                    "defaultValue": null,
                    "size": "full-size",
                    "icon": "",
                    "value": "Strength",
                    "prefix": "",
                    "suffix": "",
                    "rollMessage": "",
                    "altRollMessage": "",
                    "style": "bold",
                    "type": "label"
                  },
                  {
                    "key": "Strength_Min",
                    "cssClass": "",
                    "role": 0,
                    "permission": 0,
                    "tooltip": null,
                    "visibilityFormula": null,
                    "label": "",
                    "defaultValue": "4",
                    "size": "full-size",
                    "allowDecimal": false,
                    "minVal": "1",
                    "maxVal": "20",
                    "allowRelative": false,
                    "showControls": true,
                    "controlsStyle": "hover",
                    "type": "numberField"
                  },
                  {
                    "key": "Strength_Max",
                    "cssClass": "",
                    "role": 0,
                    "permission": 0,
                    "tooltip": null,
                    "visibilityFormula": null,
                    "label": "",
                    "defaultValue": "17",
                    "size": "full-size",
                    "allowDecimal": false,
                    "minVal": "1",
                    "maxVal": "20",
                    "allowRelative": false,
                    "showControls": true,
                    "controlsStyle": "hover",
                    "type": "numberField"
                  }
                ],
                [
                  {
                    "key": "",
                    "cssClass": "",
                    "role": 0,
                    "permission": 0,
                    "tooltip": null,
                    "visibilityFormula": null,
                    "label": null,
                    "defaultValue": null,
                    "size": "full-size",
                    "icon": "",
                    "value": "Constitution",
                    "prefix": "",
                    "suffix": "",
                    "rollMessage": "",
                    "altRollMessage": "",
                    "style": "bold",
                    "type": "label"
                  },
                  {
                    "key": "Constitution_Min",
                    "cssClass": "",
                    "role": 0,
                    "permission": 0,
                    "tooltip": null,
                    "visibilityFormula": null,
                    "label": "",
                    "defaultValue": "4",
                    "size": "full-size",
                    "allowDecimal": false,
                    "minVal": "1",
                    "maxVal": "20",
                    "allowRelative": false,
                    "showControls": true,
                    "controlsStyle": "hover",
                    "type": "numberField"
                  },
                  {
                    "key": "Constitution_Max",
                    "cssClass": "",
                    "role": 0,
                    "permission": 0,
                    "tooltip": null,
                    "visibilityFormula": null,
                    "label": "",
                    "defaultValue": "17",
                    "size": "full-size",
                    "allowDecimal": false,
                    "minVal": "1",
                    "maxVal": "20",
                    "allowRelative": false,
                    "showControls": true,
                    "controlsStyle": "hover",
                    "type": "numberField"
                  }
                ],
                [
                  {
                    "key": "",
                    "cssClass": "",
                    "role": 0,
                    "permission": 0,
                    "tooltip": null,
                    "visibilityFormula": null,
                    "label": null,
                    "defaultValue": null,
                    "size": "full-size",
                    "icon": "",
                    "value": "Dexterity",
                    "prefix": "",
                    "suffix": "",
                    "rollMessage": "",
                    "altRollMessage": "",
                    "style": "bold",
                    "type": "label"
                  },
                  {
                    "key": "Dexterity_Min",
                    "cssClass": "",
                    "role": 0,
                    "permission": 0,
                    "tooltip": null,
                    "visibilityFormula": null,
                    "label": "",
                    "defaultValue": "4",
                    "size": "full-size",
                    "allowDecimal": false,
                    "minVal": "1",
                    "maxVal": "20",
                    "allowRelative": false,
                    "showControls": true,
                    "controlsStyle": "hover",
                    "type": "numberField"
                  },
                  {
                    "key": "Dexterity_Max",
                    "cssClass": "",
                    "role": 0,
                    "permission": 0,
                    "tooltip": null,
                    "visibilityFormula": null,
                    "label": "",
                    "defaultValue": "17",
                    "size": "full-size",
                    "allowDecimal": false,
                    "minVal": "1",
                    "maxVal": "20",
                    "allowRelative": false,
                    "showControls": true,
                    "controlsStyle": "hover",
                    "type": "numberField"
                  }
                ],
                [
                  {
                    "key": "",
                    "cssClass": "",
                    "role": 0,
                    "permission": 0,
                    "tooltip": null,
                    "visibilityFormula": null,
                    "label": null,
                    "defaultValue": null,
                    "size": "full-size",
                    "icon": "",
                    "value": "Perception",
                    "prefix": "",
                    "suffix": "",
                    "rollMessage": "",
                    "altRollMessage": "",
                    "style": "bold",
                    "type": "label"
                  },
                  {
                    "key": "Perception_Min",
                    "cssClass": "",
                    "role": 0,
                    "permission": 0,
                    "tooltip": null,
                    "visibilityFormula": null,
                    "label": "",
                    "defaultValue": "4",
                    "size": "full-size",
                    "allowDecimal": false,
                    "minVal": "1",
                    "maxVal": "20",
                    "allowRelative": false,
                    "showControls": true,
                    "controlsStyle": "hover",
                    "type": "numberField"
                  },
                  {
                    "key": "Perception_Max",
                    "cssClass": "",
                    "role": 0,
                    "permission": 0,
                    "tooltip": null,
                    "visibilityFormula": null,
                    "label": "",
                    "defaultValue": "17",
                    "size": "full-size",
                    "allowDecimal": false,
                    "minVal": "1",
                    "maxVal": "20",
                    "allowRelative": false,
                    "showControls": true,
                    "controlsStyle": "hover",
                    "type": "numberField"
                  }
                ],
                [
                  {
                    "key": "",
                    "cssClass": "",
                    "role": 0,
                    "permission": 0,
                    "tooltip": null,
                    "visibilityFormula": null,
                    "label": null,
                    "defaultValue": null,
                    "size": "full-size",
                    "icon": "",
                    "value": "Willpower",
                    "prefix": "",
                    "suffix": "",
                    "rollMessage": "",
                    "altRollMessage": "",
                    "style": "bold",
                    "type": "label"
                  },
                  {
                    "key": "Willpower_Min",
                    "cssClass": "",
                    "role": 0,
                    "permission": 0,
                    "tooltip": null,
                    "visibilityFormula": null,
                    "label": "",
                    "defaultValue": "4",
                    "size": "full-size",
                    "allowDecimal": false,
                    "minVal": "1",
                    "maxVal": "20",
                    "allowRelative": false,
                    "showControls": true,
                    "controlsStyle": "hover",
                    "type": "numberField"
                  },
                  {
                    "key": "Willpower_Max",
                    "cssClass": "",
                    "role": 0,
                    "permission": 0,
                    "tooltip": null,
                    "visibilityFormula": null,
                    "label": "",
                    "defaultValue": "17",
                    "size": "full-size",
                    "allowDecimal": false,
                    "minVal": "1",
                    "maxVal": "20",
                    "allowRelative": false,
                    "showControls": true,
                    "controlsStyle": "hover",
                    "type": "numberField"
                  }
                ],
                [
                  {
                    "key": "",
                    "cssClass": "",
                    "role": 0,
                    "permission": 0,
                    "tooltip": null,
                    "visibilityFormula": null,
                    "label": null,
                    "defaultValue": null,
                    "size": "full-size",
                    "icon": "",
                    "value": "Stability",
                    "prefix": "",
                    "suffix": "",
                    "rollMessage": "",
                    "altRollMessage": "",
                    "style": "bold",
                    "type": "label"
                  },
                  {
                    "key": "Stability_Min",
                    "cssClass": "",
                    "role": 0,
                    "permission": 0,
                    "tooltip": null,
                    "visibilityFormula": null,
                    "label": "",
                    "defaultValue": "4",
                    "size": "full-size",
                    "allowDecimal": false,
                    "minVal": "1",
                    "maxVal": "20",
                    "allowRelative": false,
                    "showControls": true,
                    "controlsStyle": "hover",
                    "type": "numberField"
                  },
                  {
                    "key": "Stability_Max",
                    "cssClass": "",
                    "role": 0,
                    "permission": 0,
                    "tooltip": null,
                    "visibilityFormula": null,
                    "label": "",
                    "defaultValue": "17",
                    "size": "full-size",
                    "allowDecimal": false,
                    "minVal": "1",
                    "maxVal": "20",
                    "allowRelative": false,
                    "showControls": true,
                    "controlsStyle": "hover",
                    "type": "numberField"
                  }
                ],
                [
                  {
                    "key": "",
                    "cssClass": "",
                    "role": 0,
                    "permission": 0,
                    "tooltip": null,
                    "visibilityFormula": null,
                    "label": null,
                    "defaultValue": null,
                    "size": "full-size",
                    "icon": "",
                    "value": "Intelligence",
                    "prefix": "",
                    "suffix": "",
                    "rollMessage": "",
                    "altRollMessage": "",
                    "style": "bold",
                    "type": "label"
                  },
                  {
                    "key": "Intelligence_Min",
                    "cssClass": "",
                    "role": "0",
                    "permission": "0",
                    "tooltip": "",
                    "visibilityFormula": "",
                    "label": "",
                    "defaultValue": "4",
                    "size": "full-size",
                    "allowDecimal": false,
                    "minVal": "1",
                    "maxVal": "20",
                    "allowRelative": false,
                    "showControls": true,
                    "controlsStyle": "hover",
                    "type": "numberField"
                  },
                  {
                    "key": "Intelligence_Max",
                    "cssClass": "",
                    "role": 0,
                    "permission": 0,
                    "tooltip": null,
                    "visibilityFormula": null,
                    "label": "",
                    "defaultValue": "17",
                    "size": "full-size",
                    "allowDecimal": false,
                    "minVal": "1",
                    "maxVal": "20",
                    "allowRelative": false,
                    "showControls": true,
                    "controlsStyle": "hover",
                    "type": "numberField"
                  }
                ],
                [
                  {
                    "key": "",
                    "cssClass": "",
                    "role": 0,
                    "permission": 0,
                    "tooltip": null,
                    "visibilityFormula": null,
                    "label": null,
                    "defaultValue": null,
                    "size": "full-size",
                    "icon": "",
                    "value": "Charisma",
                    "prefix": "",
                    "suffix": "",
                    "rollMessage": "",
                    "altRollMessage": "",
                    "style": "bold",
                    "type": "label"
                  },
                  {
                    "key": "Charisma_Min",
                    "cssClass": "",
                    "role": 0,
                    "permission": 0,
                    "tooltip": null,
                    "visibilityFormula": null,
                    "label": "",
                    "defaultValue": "4",
                    "size": "full-size",
                    "allowDecimal": false,
                    "minVal": "1",
                    "maxVal": "20",
                    "allowRelative": false,
                    "showControls": true,
                    "controlsStyle": "hover",
                    "type": "numberField"
                  },
                  {
                    "key": "Charisma_Max",
                    "cssClass": "",
                    "role": 0,
                    "permission": 0,
                    "tooltip": null,
                    "visibilityFormula": null,
                    "label": "",
                    "defaultValue": "17",
                    "size": "full-size",
                    "allowDecimal": false,
                    "minVal": "1",
                    "maxVal": "20",
                    "allowRelative": false,
                    "showControls": true,
                    "controlsStyle": "hover",
                    "type": "numberField"
                  }
                ]
              ],
              "cols": "3",
              "rows": "9",
              "layout": "ccc",
              "type": "table"
            },
            {
              "key": "",
              "cssClass": "",
              "role": "0",
              "permission": "0",
              "tooltip": "",
              "visibilityFormula": "",
              "label": null,
              "defaultValue": null,
              "size": "full-size",
              "icon": "",
              "value": "Movement Speed",
              "prefix": "",
              "suffix": "",
              "rollMessage": "",
              "altRollMessage": "",
              "style": "title",
              "type": "label"
            },
            {
              "key": "",
              "cssClass": "",
              "role": 0,
              "permission": 0,
              "tooltip": null,
              "visibilityFormula": null,
              "contents": [
                [
                  {
                    "key": "",
                    "cssClass": "",
                    "role": 0,
                    "permission": 0,
                    "tooltip": null,
                    "visibilityFormula": null,
                    "label": null,
                    "defaultValue": null,
                    "size": "full-size",
                    "icon": "",
                    "value": "Walking",
                    "prefix": "",
                    "suffix": "",
                    "rollMessage": "",
                    "altRollMessage": "",
                    "style": "bold",
                    "type": "label"
                  },
                  {
                    "key": "Walking",
                    "cssClass": "",
                    "role": 0,
                    "permission": 0,
                    "tooltip": null,
                    "visibilityFormula": null,
                    "label": "",
                    "defaultValue": "0",
                    "size": "full-size",
                    "allowDecimal": false,
                    "minVal": "0",
                    "maxVal": "",
                    "allowRelative": false,
                    "showControls": true,
                    "controlsStyle": "hover",
                    "type": "numberField"
                  }
                ],
                [
                  {
                    "key": "",
                    "cssClass": "",
                    "role": 0,
                    "permission": 0,
                    "tooltip": null,
                    "visibilityFormula": null,
                    "label": null,
                    "defaultValue": null,
                    "size": "full-size",
                    "icon": "",
                    "value": "Swimming",
                    "prefix": "",
                    "suffix": "",
                    "rollMessage": "",
                    "altRollMessage": "",
                    "style": "bold",
                    "type": "label"
                  },
                  {
                    "key": "Swimming",
                    "cssClass": "",
                    "role": 0,
                    "permission": 0,
                    "tooltip": null,
                    "visibilityFormula": null,
                    "label": "",
                    "defaultValue": "0",
                    "size": "full-size",
                    "allowDecimal": false,
                    "minVal": "0",
                    "maxVal": "",
                    "allowRelative": false,
                    "showControls": true,
                    "controlsStyle": "hover",
                    "type": "numberField"
                  }
                ],
                [
                  {
                    "key": "",
                    "cssClass": "",
                    "role": 0,
                    "permission": 0,
                    "tooltip": null,
                    "visibilityFormula": null,
                    "label": null,
                    "defaultValue": null,
                    "size": "full-size",
                    "icon": "",
                    "value": "Flying",
                    "prefix": "",
                    "suffix": "",
                    "rollMessage": "",
                    "altRollMessage": "",
                    "style": "bold",
                    "type": "label"
                  },
                  {
                    "key": "Flying",
                    "cssClass": "",
                    "role": 0,
                    "permission": 0,
                    "tooltip": null,
                    "visibilityFormula": null,
                    "label": "",
                    "defaultValue": "0",
                    "size": "full-size",
                    "allowDecimal": false,
                    "minVal": "0",
                    "maxVal": "",
                    "allowRelative": false,
                    "showControls": true,
                    "controlsStyle": "hover",
                    "type": "numberField"
                  }
                ]
              ],
              "cols": "2",
              "rows": "3",
              "layout": "cc",
              "type": "table"
            }
          ],
          "flow": "vertical",
          "align": "center",
          "type": "panel"
        }
      ],
      "key": "custom_body",
      "cssClass": null,
      "flow": null,
      "align": null,
      "type": "panel",
      "role": 0,
      "permission": 0,
      "tooltip": null,
      "visibilityFormula": null
    },
    "display": {
      "width": "600",
      "height": "600",
      "fix_size": false,
      "pp_width": "64",
      "pp_height": "64"
    },
    "template": "0aAPE74gWqDGROTp",
    "props": {
      "name": "Orc",
      "Strength_Min": "8",
      "Strength_Max": "20",
      "Constitution_Min": "7",
      "Constitution_Max": "20",
      "Dexterity_Min": "2",
      "Dexterity_Max": "14",
      "Perception_Min": "2",
      "Perception_Max": "15",
      "Willpower_Min": "5",
      "Willpower_Max": "18",
      "Stability_Min": "4",
      "Stability_Max": "17",
      "Intelligence_Max": "13",
      "Charisma_Min": "2",
      "Charisma_Max": "17",
      "Walking": "10",
      "Swimming": "4",
      "Flying": "0",
      "Intelligence_Min": "4"
    },
    "modifiers": [],
    "unique": false,
    "templateSystemUniqueVersion": 4083352169
  },
  "effects": [],
  "folder": "mgsPqg4yumhH5KY1",
  "flags": {
    "custom-system-builder": {
      "version": "2.3.1"
    },
    "exportSource": {
      "world": "example",
      "system": "custom-system-builder",
      "coreVersion": "11.307",
      "systemVersion": "2.3.1"
    }
  },
  "_stats": {
    "systemId": "custom-system-builder",
    "systemVersion": "2.3.1",
    "coreVersion": "11.307",
    "createdTime": 1692133405729,
    "modifiedTime": 1692134679008,
    "lastModifiedBy": "qW8zGX9Ha3g8siz3"
  }
}